{
    "type": "application",
    "source-directories": [
        "src",
        "elm-rosetree/src"
    ],
    "elm-version": "0.19.0",
    "dependencies": {
        "direct": {
            "elm/browser": "1.0.1",
            "elm/core": "1.0.2",
            "elm/html": "1.0.0",
            "elm/url": "1.0.0",
            "elm-community/maybe-extra": "5.0.0",
            "mdgriffith/elm-ui": "1.1.0",
            "ohanhi/keyboard": "2.0.0",
            "pzp1997/assoc-list": "1.0.0"
        },
        "indirect": {
            "elm/json": "1.1.3",
            "elm/time": "1.0.0",
            "elm/virtual-dom": "1.0.2"
        }
    },
    "test-dependencies": {
        "direct": {
            "elm-explorations/test": "1.2.1"
        },
        "indirect": {
            "elm/random": "1.0.0"
        }
    }
}